<svg width="250" height="305" viewBox="0 0 250 305" xmlns="http://www.w3.org/2000/svg" xmlns:xlink="http://www.w3.org/1999/xlink">
  <defs>
    <clipPath id="main-mask-4672734">
      <rect x="0" y="0" width="250" height="305" rx="10"></rect>
    </clipPath>
    <clipPath id="avatar-mask-4672734">
      <circle cx="125" cy="60" r="28" fill="#000"></circle>
    </clipPath>


    <g id="qr-4672734"><svg version="1.1" viewBox="0 0 2475 2475" width="190px" height="190px" class="qr-code" xml:space="preserve" xmlns="http://www.w3.org/2000/svg" xmlns:xlink="http://www.w3.org/1999/xlink">
        <defs>
            <rect id="rect-4672734" width="100" height="100" fill="#000"></rect>
          <path id="empty-4672734" d="M0,28.6v42.9C0,87.3,12.8,100,28.6,100h42.9c15.9,0,28.6-12.8,28.6-28.6V28.6C100,12.7,87.2,0,71.4,0H28.6 C12.8,0,0,12.8,0,28.6z" fill="#000"></path>
          <path id="b-4672734" d="M0,0 L66,0 C84.7776815,-3.44940413e-15 100,15.2223185 100,34 L100,66 C100,84.7776815 84.7776815,100 66,100 L0,100 L0,0 Z" transform="rotate(-90 50 50)" fill="#000"></path>
          <path id="r-4672734" d="M0,0 L66,0 C84.7776815,-3.44940413e-15 100,15.2223185 100,34 L100,66 C100,84.7776815 84.7776815,100 66,100 L0,100 L0,0 Z" transform="rotate(-180 50 50)" fill="#000"></path>
          <path id="l-4672734" d="M0,0 L66,0 C84.7776815,-3.44940413e-15 100,15.2223185 100,34 L100,66 C100,84.7776815 84.7776815,100 66,100 L0,100 L0,0 Z" fill="#000"></path>
          <path id="t-4672734" d="M0,0 L66,0 C84.7776815,-3.44940413e-15 100,15.2223185 100,34 L100,66 C100,84.7776815 84.7776815,100 66,100 L0,100 L0,0 Z" transform="rotate(90 50 50)" fill="#000"></path>
          <path id="l-4672734" d="M0,0 L100,0 L100,66 C100,84.7776815 84.7776815,100 66,100 L0,100 L0,0 Z" transform="rotate(-90 50 50)" fill="#000"></path>
          <path id="lt-4672734" d="M0,0 L100,0 L100,66 C100,84.7776815 84.7776815,100 66,100 L0,100 L0,0 Z" fill="#000"></path>
          <path id="lb-4672734" d="M0,0 L100,0 L100,66 C100,84.7776815 84.7776815,100 66,100 L0,100 L0,0 Z" transform="rotate(-90 50 50)" fill="#000"></path>
          <path id="rb-4672734" d="M0,0 L100,0 L100,66 C100,84.7776815 84.7776815,100 66,100 L0,100 L0,0 Z" transform="rotate(-180 50 50)" fill="#000"></path>
          <path id="rt-4672734" d="M0,0 L100,0 L100,66 C100,84.7776815 84.7776815,100 66,100 L0,100 L0,0 Z" transform="rotate(90 50 50)" fill="#000"></path>
          <path id="n_lt-4672734" d="M30.5,2V0H0v30.5h2C2,14.7,14.8,2,30.5,2z" fill="#000"></path>
          <path id="n_lb-4672734" d="M2,69.5H0V100h30.5v-2C14.7,98,2,85.2,2,69.5z" fill="#000"></path>
          <path id="n_rt-4672734" d="M98,30.5h2V0H69.5v2C85.3,2,98,14.8,98,30.5z" fill="#000"></path>
          <path id="n_rb-4672734" d="M69.5,98v2H100V69.5h-2C98,85.3,85.2,98,69.5,98z" fill="#000"></path>
          <path id="point-4672734" d="M600.001786,457.329333 L600.001786,242.658167 C600.001786,147.372368 587.039517,124.122784 581.464617,118.535383 C575.877216,112.960483 552.627632,99.9982143 457.329333,99.9982143 L242.670667,99.9982143 C147.372368,99.9982143 124.122784,112.960483 118.547883,118.535383 C112.972983,124.122784 99.9982143,147.372368 99.9982143,242.658167 L99.9982143,457.329333 C99.9982143,552.627632 112.972983,575.877216 118.547883,581.464617 C124.122784,587.027017 147.372368,600.001786 242.670667,600.001786 L457.329333,600.001786 C552.627632,600.001786 575.877216,587.027017 581.464617,581.464617 C587.039517,575.877216 600.001786,552.627632 600.001786,457.329333 Z M457.329333,0 C653.338333,0 700,46.6616668 700,242.658167 C700,438.667167 700,261.332833 700,457.329333 C700,653.338333 653.338333,700 457.329333,700 C261.332833,700 438.667167,700 242.670667,700 C46.6616668,700 0,653.338333 0,457.329333 C0,261.332833 0,352.118712 0,242.658167 C0,46.6616668 46.6616668,0 242.670667,0 C438.667167,0 261.332833,0 457.329333,0 Z M395.996667,200 C480.004166,200 500,220.008332 500,303.990835 C500,387.998334 500,312.001666 500,395.996667 C500,479.991668 480.004166,500 395.996667,500 C312.001666,500 387.998334,500 304.003333,500 C220.008332,500 200,479.991668 200,395.996667 C200,312.001666 200,350.906061 200,303.990835 C200,220.008332 220.008332,200 304.003333,200 C387.998334,200 312.001666,200 395.996667,200 Z" fill="#000"></path>
          <g id="vk_logo-4672734"><path fill="#000000" d="M253.066667,0 C457.466667,0 272.533333,0 476.933333,0 C681.333333,0 730,48.6666667 730,253.066667 C730,457.466667 730,272.533333 730,476.933333 C730,681.333333 681.333333,730 476.933333,730 C272.533333,730 457.466667,730 253.066667,730 C48.6666667,730 0,681.333333 0,476.933333 C0,272.533333 0,367.206459 0,253.066667 C0,48.6666667 48.6666667,0 253.066667,0 Z"></path><path fill="#FFF" d="M597.816744,251.493445 C601.198942,240.214758 597.816746,231.927083 581.719678,231.927083 L528.490512,231.927083 C514.956087,231.927083 508.716524,239.08642 505.332448,246.981031 C505.332448,246.981031 478.263599,312.960647 439.917002,355.818719 C427.510915,368.224806 421.871102,372.172112 415.10389,372.172112 C411.720753,372.172112 406.822917,368.224806 406.822917,356.947057 L406.822917,251.493445 C406.822917,237.95902 402.895137,231.927083 391.615512,231.927083 L307.969678,231.927083 C299.511836,231.927083 294.425223,238.208719 294.425223,244.162063 C294.425223,256.99245 313.597583,259.951287 315.573845,296.043086 L315.573845,374.428788 C315.573845,391.614583 312.470184,394.730425 305.702972,394.730425 C287.658011,394.730425 243.763595,328.456052 217.730151,252.620844 C212.628223,237.881107 207.511068,231.927083 193.907178,231.927083 L140.678012,231.927083 C125.469678,231.927083 122.427826,239.08642 122.427826,246.981031 C122.427826,261.079625 140.473725,331.006546 206.452402,423.489903 C250.437874,486.648674 312.410515,520.885417 368.803012,520.885417 C402.638134,520.885417 406.823845,513.28125 406.823845,500.183098 L406.823845,452.447917 C406.823845,437.239583 410.029185,434.204421 420.743703,434.204421 C428.638315,434.204421 442.172739,438.151727 473.753063,468.603713 C509.843923,504.694573 515.79398,520.885417 536.094678,520.885417 L589.323845,520.885417 C604.532178,520.885417 612.136345,513.28125 607.749619,498.274853 C602.949226,483.318593 585.717788,461.619053 562.853283,435.89599 C550.446258,421.234166 531.837128,405.444943 526.197316,397.548454 C518.302704,387.399043 520.558441,382.88663 526.197316,373.864619 C526.197316,373.864619 591.049532,282.508661 597.816744,251.493445 Z"></path></g>
        </defs>
        <rect x="0" width="2475" height="2475" rx="469" fill="#fff"></rect>
        <g transform="translate(273.5526315789474, 273.5526315789474) scale(0.7894736842105263)">
          <g transform="translate(873,0)"><use xlink:href="#r-4672734"></use></g>
          <g transform="translate(970,0)"><use xlink:href="#rect-4672734"></use></g>
          <g transform="translate(1067,0)"><use xlink:href="#rect-4672734"></use></g>
          <g transform="translate(1164,0)"><use xlink:href="#rect-4672734"></use></g>
          <g transform="translate(1261,0)"><use xlink:href="#l-4672734"></use></g>
          <g transform="translate(1455,0)"><use xlink:href="#r-4672734"></use></g>
          <g transform="translate(1552,0)"><use xlink:href="#l-4672734"></use></g>
          <g transform="translate(1358,97)"><use xlink:href="#empty-4672734"></use></g>
          <g transform="translate(776,194)"><use xlink:href="#rb-4672734"></use></g>
          <g transform="translate(873,194)"><use xlink:href="#rect-4672734"></use></g>
          <g transform="translate(970,194)"><use xlink:href="#l-4672734"></use></g>
          <g transform="translate(1067,194)"><use xlink:href="#n_rb-4672734"></use></g>
          <g transform="translate(1164,194)"><use xlink:href="#rb-4672734"></use></g>
          <g transform="translate(1261,194)"><use xlink:href="#lb-4672734"></use></g>
          <g transform="translate(1455,194)"><use xlink:href="#r-4672734"></use></g>
          <g transform="translate(1552,194)"><use xlink:href="#lb-4672734"></use></g>
          <g transform="translate(776,291)"><use xlink:href="#t-4672734"></use></g>
          <g transform="translate(1067,291)"><use xlink:href="#r-4672734"></use></g>
          <g transform="translate(1164,291)"><use xlink:href="#rect-4672734"></use></g>
          <g transform="translate(1261,291)"><use xlink:href="#lt-4672734"></use></g>
          <g transform="translate(1552,291)"><use xlink:href="#t-4672734"></use></g>
          <g transform="translate(873,388)"><use xlink:href="#n_rb-4672734"></use></g>
          <g transform="translate(970,388)"><use xlink:href="#b-4672734"></use></g>
          <g transform="translate(1067,388)"><use xlink:href="#n_rb-4672734"></use></g>
          <g transform="translate(1164,388)"><use xlink:href="#rect-4672734"></use></g>
          <g transform="translate(1261,388)"><use xlink:href="#n_rb-4672734"></use></g>
          <g transform="translate(1358,388)"><use xlink:href="#rb-4672734"></use></g>
          <g transform="translate(1455,388)"><use xlink:href="#l-4672734"></use></g>
          <g transform="translate(873,485)"><use xlink:href="#r-4672734"></use></g>
          <g transform="translate(970,485)"><use xlink:href="#rect-4672734"></use></g>
          <g transform="translate(1067,485)"><use xlink:href="#rect-4672734"></use></g>
          <g transform="translate(1164,485)"><use xlink:href="#rect-4672734"></use></g>
          <g transform="translate(1261,485)"><use xlink:href="#rect-4672734"></use></g>
          <g transform="translate(1358,485)"><use xlink:href="#rect-4672734"></use></g>
          <g transform="translate(776,582)"><use xlink:href="#empty-4672734"></use></g>
          <g transform="translate(970,582)"><use xlink:href="#rect-4672734"></use></g>
          <g transform="translate(1164,582)"><use xlink:href="#t-4672734"></use></g>
          <g transform="translate(1358,582)"><use xlink:href="#rect-4672734"></use></g>
          <g transform="translate(1552,582)"><use xlink:href="#empty-4672734"></use></g>
          <g transform="translate(873,679)"><use xlink:href="#n_rb-4672734"></use></g>
          <g transform="translate(970,679)"><use xlink:href="#rect-4672734"></use></g>
          <g transform="translate(1358,679)"><use xlink:href="#t-4672734"></use></g>
          <g transform="translate(291,776)"><use xlink:href="#r-4672734"></use></g>
          <g transform="translate(388,776)"><use xlink:href="#lb-4672734"></use></g>
          <g transform="translate(582,776)"><use xlink:href="#r-4672734"></use></g>
          <g transform="translate(679,776)"><use xlink:href="#l-4672734"></use></g>
          <g transform="translate(873,776)"><use xlink:href="#r-4672734"></use></g>
          <g transform="translate(970,776)"><use xlink:href="#rect-4672734"></use></g>
          <g transform="translate(1067,776)"><use xlink:href="#l-4672734"></use></g>
          <g transform="translate(1261,776)"><use xlink:href="#empty-4672734"></use></g>
          <g transform="translate(1940,776)"><use xlink:href="#n_rb-4672734"></use></g>
          <g transform="translate(2037,776)"><use xlink:href="#rb-4672734"></use></g>
          <g transform="translate(2134,776)"><use xlink:href="#lb-4672734"></use></g>
          <g transform="translate(194,873)"><use xlink:href="#empty-4672734"></use></g>
          <g transform="translate(388,873)"><use xlink:href="#t-4672734"></use></g>
          <g transform="translate(1843,873)"><use xlink:href="#r-4672734"></use></g>
          <g transform="translate(1940,873)"><use xlink:href="#rect-4672734"></use></g>
          <g transform="translate(2037,873)"><use xlink:href="#rect-4672734"></use></g>
          <g transform="translate(2134,873)"><use xlink:href="#rect-4672734"></use></g>
          <g transform="translate(2231,873)"><use xlink:href="#l-4672734"></use></g>
          <g transform="translate(194,970)"><use xlink:href="#n_rb-4672734"></use></g>
          <g transform="translate(291,970)"><use xlink:href="#b-4672734"></use></g>
          <g transform="translate(582,970)"><use xlink:href="#empty-4672734"></use></g>
          <g transform="translate(776,970)"><use xlink:href="#empty-4672734"></use></g>
          <g transform="translate(1552,970)"><use xlink:href="#r-4672734"></use></g>
          <g transform="translate(1649,970)"><use xlink:href="#l-4672734"></use></g>
          <g transform="translate(2037,970)"><use xlink:href="#rect-4672734"></use></g>
          <g transform="translate(2231,970)"><use xlink:href="#n_rb-4672734"></use></g>
          <g transform="translate(2328,970)"><use xlink:href="#b-4672734"></use></g>
          <g transform="translate(194,1067)"><use xlink:href="#r-4672734"></use></g>
          <g transform="translate(291,1067)"><use xlink:href="#lt-4672734"></use></g>
          <g transform="translate(582,1067)"><use xlink:href="#n_rb-4672734"></use></g>
          <g transform="translate(679,1067)"><use xlink:href="#b-4672734"></use></g>
          <g transform="translate(1843,1067)"><use xlink:href="#empty-4672734"></use></g>
          <g transform="translate(2037,1067)"><use xlink:href="#rt-4672734"></use></g>
          <g transform="translate(2134,1067)"><use xlink:href="#rect-4672734"></use></g>
          <g transform="translate(2231,1067)"><use xlink:href="#rect-4672734"></use></g>
          <g transform="translate(2328,1067)"><use xlink:href="#rect-4672734"></use></g>
          <g transform="translate(0,1164)"><use xlink:href="#b-4672734"></use></g>
          <g transform="translate(582,1164)"><use xlink:href="#r-4672734"></use></g>
          <g transform="translate(679,1164)"><use xlink:href="#rect-4672734"></use></g>
          <g transform="translate(776,1164)"><use xlink:href="#lb-4672734"></use></g>
          <g transform="translate(1552,1164)"><use xlink:href="#r-4672734"></use></g>
          <g transform="translate(1649,1164)"><use xlink:href="#rect-4672734"></use></g>
          <g transform="translate(1746,1164)"><use xlink:href="#l-4672734"></use></g>
          <g transform="translate(2328,1164)"><use xlink:href="#t-4672734"></use></g>
          <g transform="translate(0,1261)"><use xlink:href="#rect-4672734"></use></g>
          <g transform="translate(97,1261)"><use xlink:href="#lb-4672734"></use></g>
          <g transform="translate(388,1261)"><use xlink:href="#rb-4672734"></use></g>
          <g transform="translate(485,1261)"><use xlink:href="#l-4672734"></use></g>
          <g transform="translate(679,1261)"><use xlink:href="#rect-4672734"></use></g>
          <g transform="translate(776,1261)"><use xlink:href="#rect-4672734"></use></g>
          <g transform="translate(1940,1261)"><use xlink:href="#b-4672734"></use></g>
          <g transform="translate(2134,1261)"><use xlink:href="#n_rb-4672734"></use></g>
          <g transform="translate(2231,1261)"><use xlink:href="#b-4672734"></use></g>
          <g transform="translate(0,1358)"><use xlink:href="#rect-4672734"></use></g>
          <g transform="translate(97,1358)"><use xlink:href="#rect-4672734"></use></g>
          <g transform="translate(194,1358)"><use xlink:href="#l-4672734"></use></g>
          <g transform="translate(291,1358)"><use xlink:href="#n_rb-4672734"></use></g>
          <g transform="translate(388,1358)"><use xlink:href="#rect-4672734"></use></g>
          <g transform="translate(582,1358)"><use xlink:href="#r-4672734"></use></g>
          <g transform="translate(679,1358)"><use xlink:href="#rect-4672734"></use></g>
          <g transform="translate(776,1358)"><use xlink:href="#lt-4672734"></use></g>
          <g transform="translate(1649,1358)"><use xlink:href="#empty-4672734"></use></g>
          <g transform="translate(1940,1358)"><use xlink:href="#rt-4672734"></use></g>
          <g transform="translate(2037,1358)"><use xlink:href="#rect-4672734"></use></g>
          <g transform="translate(2134,1358)"><use xlink:href="#rect-4672734"></use></g>
          <g transform="translate(2231,1358)"><use xlink:href="#rect-4672734"></use></g>
          <g transform="translate(2328,1358)"><use xlink:href="#lb-4672734"></use></g>
          <g transform="translate(0,1455)"><use xlink:href="#rect-4672734"></use></g>
          <g transform="translate(291,1455)"><use xlink:href="#rb-4672734"></use></g>
          <g transform="translate(388,1455)"><use xlink:href="#lt-4672734"></use></g>
          <g transform="translate(1746,1455)"><use xlink:href="#n_rb-4672734"></use></g>
          <g transform="translate(1843,1455)"><use xlink:href="#b-4672734"></use></g>
          <g transform="translate(2037,1455)"><use xlink:href="#rt-4672734"></use></g>
          <g transform="translate(2134,1455)"><use xlink:href="#rect-4672734"></use></g>
          <g transform="translate(2328,1455)"><use xlink:href="#t-4672734"></use></g>
          <g transform="translate(0,1552)"><use xlink:href="#t-4672734"></use></g>
          <g transform="translate(291,1552)"><use xlink:href="#t-4672734"></use></g>
          <g transform="translate(582,1552)"><use xlink:href="#empty-4672734"></use></g>
          <g transform="translate(776,1552)"><use xlink:href="#n_rb-4672734"></use></g>
          <g transform="translate(873,1552)"><use xlink:href="#b-4672734"></use></g>
          <g transform="translate(970,1552)"><use xlink:href="#n_rb-4672734"></use></g>
          <g transform="translate(1067,1552)"><use xlink:href="#b-4672734"></use></g>
          <g transform="translate(1261,1552)"><use xlink:href="#empty-4672734"></use></g>
          <g transform="translate(1552,1552)"><use xlink:href="#rb-4672734"></use></g>
          <g transform="translate(1649,1552)"><use xlink:href="#rect-4672734"></use></g>
          <g transform="translate(1746,1552)"><use xlink:href="#rect-4672734"></use></g>
          <g transform="translate(1843,1552)"><use xlink:href="#rect-4672734"></use></g>
          <g transform="translate(1940,1552)"><use xlink:href="#lb-4672734"></use></g>
          <g transform="translate(2134,1552)"><use xlink:href="#rect-4672734"></use></g>
          <g transform="translate(2231,1552)"><use xlink:href="#lb-4672734"></use></g>
          <g transform="translate(776,1649)"><use xlink:href="#rb-4672734"></use></g>
          <g transform="translate(873,1649)"><use xlink:href="#rect-4672734"></use></g>
          <g transform="translate(970,1649)"><use xlink:href="#rect-4672734"></use></g>
          <g transform="translate(1067,1649)"><use xlink:href="#rect-4672734"></use></g>
          <g transform="translate(1164,1649)"><use xlink:href="#lb-4672734"></use></g>
          <g transform="translate(1358,1649)"><use xlink:href="#empty-4672734"></use></g>
          <g transform="translate(1552,1649)"><use xlink:href="#rect-4672734"></use></g>
          <g transform="translate(1940,1649)"><use xlink:href="#rect-4672734"></use></g>
          <g transform="translate(2134,1649)"><use xlink:href="#rt-4672734"></use></g>
          <g transform="translate(2231,1649)"><use xlink:href="#lt-4672734"></use></g>
          <g transform="translate(776,1746)"><use xlink:href="#t-4672734"></use></g>
          <g transform="translate(1067,1746)"><use xlink:href="#rect-4672734"></use></g>
          <g transform="translate(1164,1746)"><use xlink:href="#rect-4672734"></use></g>
          <g transform="translate(1261,1746)"><use xlink:href="#l-4672734"></use></g>
          <g transform="translate(1455,1746)"><use xlink:href="#n_rb-4672734"></use></g>
          <g transform="translate(1552,1746)"><use xlink:href="#rect-4672734"></use></g>
          <g transform="translate(1746,1746)"><use xlink:href="#empty-4672734"></use></g>
          <g transform="translate(1940,1746)"><use xlink:href="#rect-4672734"></use></g>
          <g transform="translate(2328,1746)"><use xlink:href="#empty-4672734"></use></g>
          <g transform="translate(776,1843)"><use xlink:href="#n_rb-4672734"></use></g>
          <g transform="translate(873,1843)"><use xlink:href="#b-4672734"></use></g>
          <g transform="translate(1067,1843)"><use xlink:href="#rt-4672734"></use></g>
          <g transform="translate(1164,1843)"><use xlink:href="#rect-4672734"></use></g>
          <g transform="translate(1358,1843)"><use xlink:href="#rb-4672734"></use></g>
          <g transform="translate(1455,1843)"><use xlink:href="#rect-4672734"></use></g>
          <g transform="translate(1552,1843)"><use xlink:href="#rect-4672734"></use></g>
          <g transform="translate(1843,1843)"><use xlink:href="#n_rb-4672734"></use></g>
          <g transform="translate(1940,1843)"><use xlink:href="#rect-4672734"></use></g>
          <g transform="translate(776,1940)"><use xlink:href="#rb-4672734"></use></g>
          <g transform="translate(873,1940)"><use xlink:href="#lt-4672734"></use></g>
          <g transform="translate(1164,1940)"><use xlink:href="#t-4672734"></use></g>
          <g transform="translate(1358,1940)"><use xlink:href="#rt-4672734"></use></g>
          <g transform="translate(1455,1940)"><use xlink:href="#rect-4672734"></use></g>
          <g transform="translate(1552,1940)"><use xlink:href="#rect-4672734"></use></g>
          <g transform="translate(1649,1940)"><use xlink:href="#rect-4672734"></use></g>
          <g transform="translate(1746,1940)"><use xlink:href="#rect-4672734"></use></g>
          <g transform="translate(1843,1940)"><use xlink:href="#rect-4672734"></use></g>
          <g transform="translate(1940,1940)"><use xlink:href="#lt-4672734"></use></g>
          <g transform="translate(2231,1940)"><use xlink:href="#empty-4672734"></use></g>
          <g transform="translate(776,2037)"><use xlink:href="#t-4672734"></use></g>
          <g transform="translate(873,2037)"><use xlink:href="#n_rb-4672734"></use></g>
          <g transform="translate(970,2037)"><use xlink:href="#b-4672734"></use></g>
          <g transform="translate(1455,2037)"><use xlink:href="#t-4672734"></use></g>
          <g transform="translate(1649,2037)"><use xlink:href="#rect-4672734"></use></g>
          <g transform="translate(1746,2037)"><use xlink:href="#lt-4672734"></use></g>
          <g transform="translate(2231,2037)"><use xlink:href="#n_rb-4672734"></use></g>
          <g transform="translate(2328,2037)"><use xlink:href="#b-4672734"></use></g>
          <g transform="translate(873,2134)"><use xlink:href="#r-4672734"></use></g>
          <g transform="translate(970,2134)"><use xlink:href="#rect-4672734"></use></g>
          <g transform="translate(1261,2134)"><use xlink:href="#empty-4672734"></use></g>
          <g transform="translate(1552,2134)"><use xlink:href="#r-4672734"></use></g>
          <g transform="translate(1649,2134)"><use xlink:href="#rect-4672734"></use></g>
          <g transform="translate(1843,2134)"><use xlink:href="#n_rb-4672734"></use></g>
          <g transform="translate(1940,2134)"><use xlink:href="#rb-4672734"></use></g>
          <g transform="translate(2037,2134)"><use xlink:href="#rect-4672734"></use></g>
          <g transform="translate(2134,2134)"><use xlink:href="#rect-4672734"></use></g>
          <g transform="translate(2231,2134)"><use xlink:href="#rect-4672734"></use></g>
          <g transform="translate(2328,2134)"><use xlink:href="#rect-4672734"></use></g>
          <g transform="translate(970,2231)"><use xlink:href="#rect-4672734"></use></g>
          <g transform="translate(1067,2231)"><use xlink:href="#lb-4672734"></use></g>
          <g transform="translate(1649,2231)"><use xlink:href="#rt-4672734"></use></g>
          <g transform="translate(1746,2231)"><use xlink:href="#rect-4672734"></use></g>
          <g transform="translate(1843,2231)"><use xlink:href="#rect-4672734"></use></g>
          <g transform="translate(1940,2231)"><use xlink:href="#lt-4672734"></use></g>
          <g transform="translate(2134,2231)"><use xlink:href="#rt-4672734"></use></g>
          <g transform="translate(2231,2231)"><use xlink:href="#rect-4672734"></use></g>
          <g transform="translate(2328,2231)"><use xlink:href="#rect-4672734"></use></g>
          <g transform="translate(970,2328)"><use xlink:href="#rt-4672734"></use></g>
          <g transform="translate(1067,2328)"><use xlink:href="#lt-4672734"></use></g>
          <g transform="translate(1261,2328)"><use xlink:href="#empty-4672734"></use></g>
          <g transform="translate(1552,2328)"><use xlink:href="#empty-4672734"></use></g>
          <g transform="translate(2037,2328)"><use xlink:href="#empty-4672734"></use></g>
          <g transform="translate(2328,2328)"><use xlink:href="#t-4672734"></use></g>
          <use fill-rule="evenodd" transform="translate(0,0)" xlink:href="#point-4672734"></use>
          <use fill-rule="evenodd" transform="translate(1728,0)" xlink:href="#point-4672734"></use>
          <use fill-rule="evenodd" transform="translate(0,1728)" xlink:href="#point-4672734"></use>
          <use style="width: 750px; height: 750px;" fill="none" fill-rule="evenodd" transform="translate(904,904) scale(0.85)" xlink:href="#vk_logo-4672734"></use>
        </g>
      </svg></g>


    <g id="action-4672734-0"><path fill="#FFF" d="M1.17 3.60L1.17 3.60ZM8.10-7.74L10.26-7.74L10.26 3.60L8.10 3.60L8.10-1.17L3.33-1.17L3.33 3.60L1.17 3.60L1.17-7.74L3.33-7.74L3.33-3.24L8.10-3.24L8.10-7.74ZM11.43 3.60L11.43 3.60ZM14.40 1.26L13.59 3.60L11.34 3.60L15.57-7.74L17.55-7.74L21.78 3.60L19.53 3.60L18.72 1.26L14.40 1.26ZM15.12-0.72L18.00-0.72L16.56-4.86L15.12-0.72ZM22.86-7.74L32.04-7.74L32.04 3.60L29.88 3.60L29.88-5.67L25.02-5.67L25.02 3.60L22.86 3.60L22.86-7.74ZM43.47 3.60L41.31 3.60L41.31-3.87L36.27 3.60L34.38 3.60L34.38-7.74L36.54-7.74L36.54-0.27L41.58-7.74L43.47-7.74L43.47 3.60ZM45.18 3.60L45.18 3.60ZM47.34-2.07L47.34-2.07Q47.34-1.26 47.61-0.59Q47.88 0.09 48.33 0.58Q48.78 1.08 49.38 1.35Q49.99 1.62 50.67 1.62L50.67 1.62Q51.25 1.62 51.71 1.45Q52.18 1.28 52.55 1.00Q52.92 0.72 53.16 0.37Q53.41 0.02 53.55-0.36L53.55-0.36L55.80-0.36Q55.60 0.45 55.15 1.19Q54.70 1.93 54.05 2.47Q53.39 3.02 52.53 3.36Q51.68 3.69 50.67 3.69L50.67 3.69Q49.55 3.69 48.56 3.25Q47.56 2.81 46.81 2.02Q46.06 1.24 45.62 0.20Q45.18-0.85 45.18-2.07L45.18-2.07Q45.18-3.28 45.62-4.33Q46.06-5.38 46.81-6.17Q47.56-6.95 48.56-7.39Q49.55-7.83 50.67-7.83L50.67-7.83Q51.64-7.83 52.48-7.50Q53.32-7.16 53.96-6.62Q54.61-6.07 55.06-5.33Q55.51-4.59 55.71-3.78L55.71-3.78L53.46-3.78Q53.35-4.16 53.12-4.51Q52.88-4.86 52.53-5.14Q52.18-5.42 51.71-5.59Q51.25-5.76 50.67-5.76L50.67-5.76Q49.99-5.76 49.38-5.49Q48.78-5.22 48.33-4.73Q47.88-4.23 47.61-3.56Q47.34-2.88 47.34-2.07ZM56.07 3.60L56.07 3.60ZM59.04 1.26L58.23 3.60L55.98 3.60L60.21-7.74L62.19-7.74L66.42 3.60L64.17 3.60L63.36 1.26L59.04 1.26ZM59.76-0.72L62.64-0.72L61.20-4.86L59.76-0.72ZM65.70 3.60L65.70 3.60ZM65.70-5.67L65.70-7.74L74.52-7.74L74.52-5.67L71.19-5.67L71.19 3.60L69.03 3.60L69.03-5.67L65.70-5.67ZM80.10 3.60L75.96 3.60L75.96-7.74L78.12-7.74L78.12-3.96L80.10-3.96Q80.91-3.96 81.61-3.66Q82.31-3.37 82.85-2.85Q83.38-2.34 83.67-1.65Q83.97-0.95 83.97-0.18L83.97-0.18Q83.97 0.59 83.67 1.29Q83.38 1.98 82.85 2.49Q82.31 3.01 81.61 3.30Q80.91 3.60 80.10 3.60L80.10 3.60ZM80.10-1.89L78.12-1.89L78.12 1.53L80.10 1.53Q80.44 1.53 80.75 1.39Q81.05 1.24 81.29 1.01Q81.52 0.77 81.67 0.47Q81.81 0.16 81.81-0.18L81.81-0.18Q81.81-0.52 81.67-0.83Q81.52-1.13 81.29-1.37Q81.05-1.60 80.75-1.75Q80.44-1.89 80.10-1.89L80.10-1.89ZM89.01 3.60L89.01 3.60ZM91.17-2.07L91.17-2.07Q91.17-1.26 91.44-0.59Q91.71 0.09 92.16 0.58Q92.61 1.08 93.21 1.35Q93.82 1.62 94.50 1.62L94.50 1.62Q95.08 1.62 95.54 1.45Q96.01 1.28 96.38 1.00Q96.75 0.72 96.99 0.37Q97.24 0.02 97.38-0.36L97.38-0.36L99.63-0.36Q99.43 0.45 98.98 1.19Q98.53 1.93 97.88 2.47Q97.22 3.02 96.36 3.36Q95.51 3.69 94.50 3.69L94.50 3.69Q93.38 3.69 92.39 3.25Q91.39 2.81 90.64 2.02Q89.89 1.24 89.45 0.20Q89.01-0.85 89.01-2.07L89.01-2.07Q89.01-3.28 89.45-4.33Q89.89-5.38 90.64-6.17Q91.39-6.95 92.39-7.39Q93.38-7.83 94.50-7.83L94.50-7.83Q95.47-7.83 96.31-7.50Q97.15-7.16 97.79-6.62Q98.44-6.07 98.89-5.33Q99.34-4.59 99.54-3.78L99.54-3.78L97.29-3.78Q97.18-4.16 96.95-4.51Q96.71-4.86 96.36-5.14Q96.01-5.42 95.54-5.59Q95.08-5.76 94.50-5.76L94.50-5.76Q93.82-5.76 93.21-5.49Q92.61-5.22 92.16-4.73Q91.71-4.23 91.44-3.56Q91.17-2.88 91.17-2.07ZM100.44 3.60L100.44 3.60ZM102.60-2.07L102.60-2.07Q102.60-1.26 102.87-0.59Q103.14 0.09 103.59 0.58Q104.04 1.08 104.64 1.35Q105.25 1.62 105.93 1.62L105.93 1.62Q106.60 1.62 107.21 1.35Q107.82 1.08 108.27 0.58Q108.72 0.09 108.99-0.59Q109.26-1.26 109.26-2.07L109.26-2.07Q109.26-2.88 108.99-3.56Q108.72-4.23 108.27-4.73Q107.82-5.22 107.21-5.49Q106.60-5.76 105.93-5.76L105.93-5.76Q105.25-5.76 104.64-5.49Q104.04-5.22 103.59-4.73Q103.14-4.23 102.87-3.56Q102.60-2.88 102.60-2.07ZM111.42-2.07L111.42-2.07Q111.42-0.85 110.98 0.20Q110.54 1.24 109.79 2.02Q109.04 2.81 108.04 3.25Q107.05 3.69 105.93 3.69L105.93 3.69Q104.81 3.69 103.81 3.25Q102.82 2.81 102.07 2.02Q101.32 1.24 100.88 0.20Q100.44-0.85 100.44-2.07L100.44-2.07Q100.44-3.28 100.88-4.33Q101.32-5.38 102.07-6.17Q102.82-6.95 103.81-7.39Q104.81-7.83 105.93-7.83L105.93-7.83Q107.05-7.83 108.04-7.39Q109.04-6.95 109.79-6.17Q110.54-5.38 110.98-4.33Q111.42-3.28 111.42-2.07ZM112.50 3.60L112.50 3.60ZM114.66-2.07L114.66-2.07Q114.66-1.26 114.93-0.59Q115.20 0.09 115.65 0.58Q116.10 1.08 116.70 1.35Q117.31 1.62 117.99 1.62L117.99 1.62Q118.66 1.62 119.27 1.35Q119.88 1.08 120.33 0.58Q120.78 0.09 121.05-0.59Q121.32-1.26 121.32-2.07L121.32-2.07Q121.32-2.88 121.05-3.56Q120.78-4.23 120.33-4.73Q119.88-5.22 119.27-5.49Q118.66-5.76 117.99-5.76L117.99-5.76Q117.31-5.76 116.70-5.49Q116.10-5.22 115.65-4.73Q115.20-4.23 114.93-3.56Q114.66-2.88 114.66-2.07ZM123.48-2.07L123.48-2.07Q123.48-0.85 123.04 0.20Q122.60 1.24 121.85 2.02Q121.10 2.81 120.10 3.25Q119.11 3.69 117.99 3.69L117.99 3.69Q116.87 3.69 115.88 3.25Q114.88 2.81 114.13 2.02Q113.38 1.24 112.94 0.20Q112.50-0.85 112.50-2.07L112.50-2.07Q112.50-3.28 112.94-4.33Q113.38-5.38 114.13-6.17Q114.88-6.95 115.88-7.39Q116.87-7.83 117.99-7.83L117.99-7.83Q119.11-7.83 120.10-7.39Q121.10-6.95 121.85-6.17Q122.60-5.38 123.04-4.33Q123.48-3.28 123.48-2.07ZM127.35-3.42L129.96-3.42Q130.77-3.42 131.44-3.15Q132.12-2.88 132.62-2.40Q133.11-1.93 133.38-1.29Q133.65-0.65 133.65 0.09L133.65 0.09Q133.65 0.83 133.38 1.48Q133.11 2.12 132.62 2.59Q132.12 3.06 131.44 3.33Q130.77 3.60 129.96 3.60L129.96 3.60L125.19 3.60L125.19-7.74L132.84-7.74L132.84-5.67L127.35-5.67L127.35-3.42ZM129.96-1.44L127.35-1.44L127.35 1.62L129.96 1.62Q130.64 1.62 131.07 1.20Q131.49 0.77 131.49 0.09L131.49 0.09Q131.49-0.59 131.07-1.02Q130.64-1.44 129.96-1.44L129.96-1.44ZM146.34-7.74L148.50-7.74L148.50 1.53L149.76 1.53L149.76 5.76L147.60 5.76L147.60 3.60L135.36 3.60L135.36-7.74L137.52-7.74L137.52 1.53L140.85 1.53L140.85-7.74L143.01-7.74L143.01 1.53L146.34 1.53L146.34-7.74ZM151.29 3.60L151.29 3.60ZM153.45 1.53L159.30 1.53L159.30 3.60L151.29 3.60L151.29-7.74L159.12-7.74L159.12-5.67L153.45-5.67L153.45-3.24L158.67-3.24L158.67-1.17L153.45-1.17L153.45 1.53ZM161.10 3.60L161.10 3.60ZM168.03-7.74L170.19-7.74L170.19 3.60L168.03 3.60L168.03-1.17L163.26-1.17L163.26 3.60L161.10 3.60L161.10-7.74L163.26-7.74L163.26-3.24L168.03-3.24L168.03-7.74ZM181.62 3.60L179.46 3.60L179.46-3.87L174.42 3.60L172.53 3.60L172.53-7.74L174.69-7.74L174.69-0.27L179.73-7.74L181.62-7.74L181.62 3.60ZM183.96 3.60L183.96 3.60ZM186.12 1.53L191.97 1.53L191.97 3.60L183.96 3.60L183.96-7.74L191.79-7.74L191.79-5.67L186.12-5.67L186.12-3.24L191.34-3.24L191.34-1.17L186.12-1.17L186.12 1.53Z"></path></g>
  </defs>
  <g clip-path="url(#main-mask-4672734)">
    <rect width="250" height="305" style="fill:#000"></rect>
    <rect width="250" height="54" transform="translate(0,251)" style="fill:#333;"></rect><use x="28.69999999999999" y="281" xlink:href="#action-4672734-0"></use><use x="30" y="30" xlink:href="#qr-4672734" transform="scale(1)" xmlns="http://www.w3.org/2000/svg" xmlns:xlink="http://www.w3.org/1999/xlink"></use>
  </g>
</svg>